…
homicides_number = 
  homicides_data |>
  group_by(city_state) |>
  summarize(
    total_homicides = n(),
    unsolved_homicides = 
      sum(disposition %in% c("Closed without arrest","Open/No arrest")))
homicides_number
```

    ## # A tibble: 51 × 3
    ##   city_state      total_homicides unsolved_homicides
    ##   <chr>                     <int>              <int>
    ## 1 Albuquerque, NM             378                146
    ## 2 Atlanta, GA                 973                373
    ## 3 Baltimore, MD              2827               1825
    ## 4 Baton Rouge, LA             424                196
    ## 5 Birmingham, AL              800                347
    ## # ℹ 46 more rows
…
    ## Warning: There was 1 warning in `mutate()`.
    ## ℹ In argument: `test_result = map(city_name, unsolved_prop)`.
    ## Caused by warning in `prop.test()`:
    ## ! Chi-squared approximation may be incorrect

``` r
result
```

    ## # A tibble: 51 × 4
    ##   city_name       estimate conf.low conf.high
    ##   <chr>              <dbl>    <dbl>     <dbl>
    ## 1 Albuquerque, NM    0.386    0.337     0.438
    ## 2 Atlanta, GA        0.383    0.353     0.415
    ## 3 Baltimore, MD      0.646    0.628     0.663
    ## 4 Baton Rouge, LA    0.462    0.414     0.511
    ## 5 Birmingham, AL     0.434    0.399     0.469
    ## # ℹ 46 more rows
…
``` r
longitudinal_data
```

    ## # A tibble: 160 × 4
    ##   arm     subject_id week  observation
    ##   <fct>   <chr>      <chr>       <dbl>
    ## 1 control 01         1            0.2 
    ## 2 control 01         2           -1.31
    ## 3 control 01         3            0.66
    ## 4 control 01         4            1.96
    ## 5 control 01         5            0.23
    ## # ℹ 155 more rows
…
  sim_result
}

result_mu_0 = 
  expand_grid(
    mu = 0,
    iter = 1:5000
  ) |>
  mutate(result = map(mu, sim_test)) |>
  unnest(result)

result_mu_0
```

    ## # A tibble: 5,000 × 4
    ##      mu  iter estimate p.value
    ##   <dbl> <int>    <dbl>   <dbl>
    ## 1     0     1   1.21     0.236
    ## 2     0     2  -0.414    0.737
    ## 3     0     3   0.0622   0.947
    ## 4     0     4  -0.900    0.395
    ## 5     0     5   0.192    0.847
    ## # ℹ 4,995 more rows
…
